%YAML 1.1
%TAG !u! tag:unity3d.com,2011:
--- !u!114 &11400000
MonoBehaviour:
  m_ObjectHideFlags: 0
  m_CorrespondingSourceObject: {fileID: 0}
  m_PrefabInstance: {fileID: 0}
  m_PrefabAsset: {fileID: 0}
  m_GameObject: {fileID: 0}
  m_Enabled: 1
  m_EditorHideFlags: 0
  m_Script: {fileID: 11500000, guid: 889794c411054f7ca8e6fbdc6728c846, type: 3}
  m_Name: _UIViewDatabase
  m_EditorClassIdentifier: 
  DatabaseType: 2
  CategoryNames:
  - Custom
  - Example
  - General
  - MyMenu
  - Creditos
  - Creditos2
  - DieScreen
  - Instructions
  - Pausa
  - Go Out
  Categories:
  - {fileID: 11400000, guid: b01e98f4801f7124ba39e1dac4debf90, type: 2}
  - {fileID: 11400000, guid: f0ff55c648135324a9146e51ecf0fb7c, type: 2}
  - {fileID: 11400000, guid: b714c373506560f4c8fc1c8c6c1ebc21, type: 2}
  - {fileID: 11400000, guid: e36331cf81f436f4ea1663fca68baaf0, type: 2}
  - {fileID: 11400000, guid: e18183adb73ad7846a892a9cc816a8ea, type: 2}
  - {fileID: 11400000, guid: 1714feb9077383c4a82d0c9578b424df, type: 2}
  - {fileID: 11400000, guid: cefa7bb26e7ee7944bc84a82ef1cc5f0, type: 2}
  - {fileID: 11400000, guid: 691e1e60a4d03884db4950bb3cf0faa0, type: 2}
  - {fileID: 11400000, guid: b64f873094246a040bb92b28a09f97dc, type: 2}
